"cliente_alias";"cliente_nombres";"cliente_apellidos";"cliente_email";"cliente_celular";"cliente_contrasena";"cliente_fecha_de_nacimiento"
"diva";"Ana";"Diaz";"ana_diaz@gmail.com";"3111234567";12345678;"2000-11-22"
"dreamer";"Luis";"Rojas";"luis_rojas@gmail.com";"3101234567";12345678;"2000-10-23"
"green";"Jorge";"Rodriguez";"jorge_rodriguez@gmail.com";"3211234567";12345678;"2000-10-28"
"lucky";"Pedro";"Perez";"pedro_perez@gmail.com";"3131234567";12345678;"2000-12-24"
"malopez";"Maria";"Lopez";"maria_lopez@gmail.com";"3121234567";12345678;"2000-12-29"
"neon";"Nelson";"Ruiz";"nelson_ruiz@gmail.com";"3151234567";12345678;"2000-12-19"
"ninja";"Andres";"Cruz";"andres_cruz@gmail.com";"3115678432";12345678;"2000-09-21"
"rose";"Claudia";"Mendez";"claudia_mendez@gmail.com";"3181234567";12345678;"2000-11-26"
